CO0001,3
CO0002,4
CO0003,9
CO0004,5
CO0005,2
CO0006,4
CO0007,5
CO0008,1
PR0001,5
PR0002,2
PR0003,9
PR0004,7
PR0005,10
PR0006,11
PR0007,8
PR0008,4
PR0009,3
PR0010,9
PR0011,3
FU0001,6
FU0002,10
FU0003,7
FU0004,15
FU0005,3
FU0006,5
FU0007,8
FU0008,11
FU0009,12
FU0010,1